transcript.txt
# //  Questa Sim-64
# //  Version 2019.2_1 linux_x86_64 May 13 2019
# //
# //  Copyright 1991-2019 Mentor Graphics Corporation
# //  All Rights Reserved.
# //
# //  QuestaSim and its associated documentation contain trade
# //  secrets and commercial or financial information that are the property of
# //  Mentor Graphics Corporation and are privileged, confidential,
# //  and exempt from disclosure under the Freedom of Information Act,
# //  5 U.S.C. Section 552. Furthermore, this information
# //  is prohibited from disclosure under the Trade Secrets Act,
# //  18 U.S.C. Section 1905.
# //
# vsim -debugDB top -do "add wave sim:/top/DUT0/* ; run -all" 
# Start time: 15:53:51 on Mar 16,2023
# ** Warning: (vsim-4308) Enabling visibility using +acc is recommended with debug flow.
# ** Note: (vsim-3813) Design is being optimized due to module recompilation...
# ** Note: (vsim-8611) Generating debug db.
# ** Warning: (vopt-4308) Enabling visibility using +acc is recommended with debug flow.
# Loading sv_std.std
# Loading work.parallel_processor_if(fast)
# Loading mtiUvm.uvm_pkg
# Loading work.pkgs(fast)
# Loading mtiUvm.questa_uvm_pkg(fast)
# Loading work.top(fast)
# Loading work.parallel_processor_if(fast)
# Loading work.DUT(fast)
# Loading work.processor(fast)
# Loading work.single_cycle(fast)
# Loading work.multi_cycle(fast)
# Loading work.cache(fast)
# Loading work.load_store(fast)
# Loading work.memory_controller(fast)
# ** Warning: (vsim-8441) Clocking block output vif.driver1_cb.A is not legal in this
# or another expression.
#    Time: 0 ns  Iteration: 0  Region: /pkgs File: scoreboard.sv Line: 59
# ** Warning: (vsim-8441) Clocking block output vif.driver1_cb.B is not legal in this
# or another expression.
#    Time: 0 ns  Iteration: 0  Region: /pkgs File: scoreboard.sv Line: 59
# ** Warning: (vsim-8441) Clocking block output vif.driver1_cb.OPCODE is not legal in this
# or another expression.
#    Time: 0 ns  Iteration: 0  Region: /pkgs File: scoreboard.sv Line: 59
# ** Warning: (vsim-3838) Variable '/top/intf/RESETn' written by continuous and procedural assignments. 
# One of the assignments is implicit. See top.sv(6).
#    Time: 0 ns  Iteration: 0  Instance: /top/intf File: interface.sv Line: 1
# ** Warning: (vsim-8441) Clocking block output vif.driver1_cb.OPCODE is not legal in this
# or another expression.
#    Time: 0 ns  Iteration: 0  Region: /pkgs::proc_driver File: driver.sv Line: 54
# ** Warning: (vsim-8441) Clocking block output vif.driver1_cb.OPCODE is not legal in this
# or another expression.
#    Time: 0 ns  Iteration: 0  Region: /pkgs::proc2_driver File: driver2.sv Line: 48
# ** Warning: (vsim-8441) Clocking block output vif.driver1_cb.OPCODE is not legal in this
# or another expression.
#    Time: 0 ns  Iteration: 0  Region: /pkgs::proc3_driver File: driver3.sv Line: 43
# ** Warning: (vsim-8441) Clocking block output vif.driver1_cb.OPCODE is not legal in this
# or another expression.
#    Time: 0 ns  Iteration: 0  Region: /pkgs::proc4_driver File: driver4.sv Line: 44
# Loading /pkgs/mentor/questa/2019.2_1/questasim/uvm-1.1d/linux_x86_64/uvm_dpi.so
# ** Note: (vsim-8900) Creating design debug database vsim.dbg.
# add wave sim:/top/DUT0/* 
#  run -all
# ----------------------------------------------------------------
# UVM-1.1d
# (C) 2007-2013 Mentor Graphics Corporation
# (C) 2007-2013 Cadence Design Systems, Inc.
# (C) 2006-2013 Synopsys, Inc.
# (C) 2011-2013 Cypress Semiconductor Corp.
# ----------------------------------------------------------------
# 
#   ***********       IMPORTANT RELEASE NOTES         ************
# 
#   You are using a version of the UVM library that has been compiled
#   with `UVM_NO_DEPRECATED undefined.
#   See http://www.eda.org/svdb/view.php?id=3313 for more details.
# 
#   You are using a version of the UVM library that has been compiled
#   with `UVM_OBJECT_MUST_HAVE_CONSTRUCTOR undefined.
#   See http://www.eda.org/svdb/view.php?id=3770 for more details.
# 
#       (Specify +UVM_NO_RELNOTES to turn off this notice)
# 
# UVM_INFO verilog_src/questa_uvm_pkg-1.2/src/questa_uvm_pkg.sv(277) @ 0: reporter [Questa UVM] QUESTA_UVM-1.2.3
# UVM_INFO verilog_src/questa_uvm_pkg-1.2/src/questa_uvm_pkg.sv(278) @ 0: reporter [Questa UVM]  questa_uvm::init(+struct)
# '{clock:0 RESETn:0 DATA:x A:'{x, x, x, x} B:'{x, x, x, x} OPCODE:'{x, x, x, x} START:'{x, x, x, x} ADDRESS:'{x, x, x, x} RESULT:'{x, x, x, x} DONE:'{x, x, x, x} VALID1:x REQ:'{x, x, x, x} RW1:x ACK:'{x, x, x, x} DATA1:x ADDRESS_1:x data_in:'{x, x, x, x} data_out:x BUSY1:x VALID2:x RW2:x DATA2:x ADDRESS_2:x BUSY2:x VALID3:x RW3:x DATA3:x ADDRESS_3:x BUSY3:x VALID4:x RW4:x DATA4:x ADDRESS_4:x BUSY4:x}
# UVM_INFO @ 0: reporter [RNTST] Running test test...
# UVM_INFO @ 0: reporter [UVMTOP] UVM testbench topology:
# ----------------------------------------------------------------
# Name                         Type                    Size  Value
# ----------------------------------------------------------------
# uvm_test_top                 test                    -     @472 
#   envh                       proc_env                -     @485 
#     agent2h                  proc2_agent             -     @499 
#       drv2h                  proc2_driver            -     @529 
#         rsp_port             uvm_analysis_port       -     @544 
#         seq_item_port        uvm_seq_item_pull_port  -     @536 
#       seqr2h                 proc2_sequencer         -     @552 
#         rsp_export           uvm_analysis_export     -     @559 
#         seq_item_export      uvm_seq_item_pull_imp   -     @653 
#         arbitration_queue    array                   0     -    
#         lock_queue           array                   0     -    
#         num_last_reqs        integral                32    'd1  
#         num_last_rsps        integral                32    'd1  
#     agent3h                  proc3_agent             -     @506 
#       drv3h                  proc3_driver            -     @669 
#         rsp_port             uvm_analysis_port       -     @684 
#         seq_item_port        uvm_seq_item_pull_port  -     @676 
#       seqr3h                 proc3_sequencer         -     @692 
#         rsp_export           uvm_analysis_export     -     @699 
#         seq_item_export      uvm_seq_item_pull_imp   -     @793 
#         arbitration_queue    array                   0     -    
#         lock_queue           array                   0     -    
#         num_last_reqs        integral                32    'd1  
#         num_last_rsps        integral                32    'd1  
#     agent4h                  proc4_agent             -     @513 
#       drv4h                  proc4_driver            -     @809 
#         rsp_port             uvm_analysis_port       -     @824 
#         seq_item_port        uvm_seq_item_pull_port  -     @816 
#       seqr4h                 proc4_sequencer         -     @832 
#         rsp_export           uvm_analysis_export     -     @839 
#         seq_item_export      uvm_seq_item_pull_imp   -     @933 
#         arbitration_queue    array                   0     -    
#         lock_queue           array                   0     -    
#         num_last_reqs        integral                32    'd1  
#         num_last_rsps        integral                32    'd1  
#     agenth                   proc_agent              -     @492 
#       drvh                   proc_driver             -     @956 
#         rsp_port             uvm_analysis_port       -     @971 
#         seq_item_port        uvm_seq_item_pull_port  -     @963 
#       monh                   proc_monitor            -     @949 
#         monitor_port         uvm_analysis_port       -     @1090
#       seqrh                  proc_sequencer          -     @979 
#         rsp_export           uvm_analysis_export     -     @986 
#         seq_item_export      uvm_seq_item_pull_imp   -     @1080
#         arbitration_queue    array                   0     -    
#         lock_queue           array                   0     -    
#         num_last_reqs        integral                32    'd1  
#         num_last_rsps        integral                32    'd1  
#     sbd1                     scoreboard              -     @520 
#       item_collected_export  uvm_analysis_imp        -     @1103
# ----------------------------------------------------------------
# 
# PASSED: A: bc  B: f  OPCODE: 2 EXPECTED RESULT: c, ACTUAL RESULT : c
# SCB:: Pkt recived
# SCB:: Pkt recived
# ** Info: [110] memory lookup : x, address : x, data : x
#    Time: 110 ns  Scope: top.DUT0.mem_inst File: memory_controller.sv Line: 203
# ** Info: [110] memory lookup : 1, address : 173, data : 1
#    Time: 110 ns  Scope: top.DUT0.mem_inst File: memory_controller.sv Line: 203
# SCB:: Pkt recived
# SCB:: Pkt recived
# PASSED: A: 95  B: a5  OPCODE: 5 EXPECTED RESULT: 1df, ACTUAL RESULT : 1df
# SCB:: Pkt recived
# SCB:: Pkt recived
# ** Info: [210] memory lookup : 1, address : 173, data : 1
#    Time: 210 ns  Scope: top.DUT0.mem_inst File: memory_controller.sv Line: 203
# ** Info: [210] memory lookup : 181, address : 156, data : 181
#    Time: 210 ns  Scope: top.DUT0.mem_inst File: memory_controller.sv Line: 203
# SCB:: Pkt recived
# PASSED: A: d9  B: 1c  OPCODE: 7 EXPECTED RESULT: 28b, ACTUAL RESULT : 28b
# SCB:: Pkt recived
# A:164,B:91,result:110
# SCB:: Pkt recived
# SCB:: Pkt recived
# SCB:: Pkt recived
# ** Info: [350] memory lookup : 181, address : 156, data : 181
#    Time: 350 ns  Scope: top.DUT0.mem_inst File: memory_controller.sv Line: 203
# ** Info: [350] memory lookup : 144, address : 129, data : 144
#    Time: 350 ns  Scope: top.DUT0.mem_inst File: memory_controller.sv Line: 203
# PASSED: A: 9e  B: 21  OPCODE: 4 EXPECTED RESULT: 145e, ACTUAL RESULT : 145e
# SCB:: Pkt recived
# SCB:: Pkt recived
# A:36,B:220,result:193
# PASSED: A: 10  B: 13  OPCODE: 6 EXPECTED RESULT: 20, ACTUAL RESULT : 20
# SCB:: Pkt recived
# SCB:: Pkt recived
# A:204,B:224,result:12
# PASSED: A: cc  B: e0  OPCODE: 1 EXPECTED RESULT: 1ac, ACTUAL RESULT : 1ac
# ** Info: [530] memory lookup : 144, address : 129, data : 144
#    Time: 530 ns  Scope: top.DUT0.mem_inst File: memory_controller.sv Line: 203
# ** Info: [530] memory lookup : 234, address : 232, data : 234
#    Time: 530 ns  Scope: top.DUT0.mem_inst File: memory_controller.sv Line: 203
# SCB:: Pkt recived
# PASSED: A: 7c  B: 4f  OPCODE: 3 EXPECTED RESULT: 33, ACTUAL RESULT : 33
# SCB:: Pkt recived
# ** Info: [630] memory lookup : 234, address : 232, data : 234
#    Time: 630 ns  Scope: top.DUT0.mem_inst File: memory_controller.sv Line: 203
# ** Info: [630] memory lookup : 237, address : 95, data : 237
#    Time: 630 ns  Scope: top.DUT0.mem_inst File: memory_controller.sv Line: 203
# PASSED: A: e4  B: 57  OPCODE: 5 EXPECTED RESULT: 192, ACTUAL RESULT : 192
# SCB:: Pkt recived
# SCB:: Pkt recived
# SCB:: Pkt recived
# ** Info: [770] memory lookup : 237, address : 95, data : 237
#    Time: 770 ns  Scope: top.DUT0.mem_inst File: memory_controller.sv Line: 203
# ** Info: [770] memory lookup : 222, address : 59, data : 222
#    Time: 770 ns  Scope: top.DUT0.mem_inst File: memory_controller.sv Line: 203
# PASSED: A: a7  B: cd  OPCODE: 7 EXPECTED RESULT: 1f5, ACTUAL RESULT : 1f5
# SCB:: Pkt recived
# SCB:: Pkt recived
# A:53,B:39,result:84
# SCB:: Pkt recived
# SCB:: Pkt recived
# PASSED: A: b9  B: 65  OPCODE: 4 EXPECTED RESULT: 48fd, ACTUAL RESULT : 48fd
# SCB:: Pkt recived
# ** Info: [950] memory lookup : 222, address : 59, data : 222
#    Time: 950 ns  Scope: top.DUT0.mem_inst File: memory_controller.sv Line: 203
# ** Info: [950] memory lookup : 186, address : 129, data : 186
#    Time: 950 ns  Scope: top.DUT0.mem_inst File: memory_controller.sv Line: 203
# SCB:: Pkt recived
# A:222,B:30,result:64
# PASSED: A: 3b  B: d8  OPCODE: 6 EXPECTED RESULT: 76, ACTUAL RESULT : 76
# SCB:: Pkt recived
# SCB:: Pkt recived
# A:153,B:45,result:51
# PASSED: A: 99  B: 2d  OPCODE: 1 EXPECTED RESULT: c6, ACTUAL RESULT : c6
# SCB:: Pkt recived
# SCB:: Pkt recived
# PASSED: A: cd  B: 9a  OPCODE: 3 EXPECTED RESULT: 57, ACTUAL RESULT : 57
# SCB:: Pkt recived
# ** Info: [1090] memory lookup : 186, address : 129, data : 186
#    Time: 1090 ns  Scope: top.DUT0.mem_inst File: memory_controller.sv Line: 203
# ** Info: [1090] memory lookup : 176, address : 80, data : 176
#    Time: 1090 ns  Scope: top.DUT0.mem_inst File: memory_controller.sv Line: 203
# SCB:: Pkt recived
# PASSED: A: 5e  B: ee  OPCODE: 2 EXPECTED RESULT: 4e, ACTUAL RESULT : 4e
# SCB:: Pkt recived
# SCB:: Pkt recived
# PASSED: A: cb  B: 4e  OPCODE: 4 EXPECTED RESULT: 3dda, ACTUAL RESULT : 3dda
# SCB:: Pkt recived
# PASSED: A: 9f  B: 73  OPCODE: 3 EXPECTED RESULT: ec, ACTUAL RESULT : ec
# SCB:: Pkt recived
# PASSED: A: c6  B: 7c  OPCODE: 7 EXPECTED RESULT: 252, ACTUAL RESULT : 252
# SCB:: Pkt recived
# A:255,B:39,result:236
# PASSED: A: ff  B: 27  OPCODE: 1 EXPECTED RESULT: 126, ACTUAL RESULT : 126
# SCB:: Pkt recived
# PASSED: A: 20  B: 4d  OPCODE: 5 EXPECTED RESULT: ba, ACTUAL RESULT : ba
# SCB:: Pkt recived
# PASSED: A: 6f  B: 12  OPCODE: 2 EXPECTED RESULT: 2, ACTUAL RESULT : 2
# SCB:: Pkt recived
# PASSED: A: a0  B: 1a  OPCODE: 6 EXPECTED RESULT: 140, ACTUAL RESULT : 140
# SCB:: Pkt recived
# PASSED: A: e8  B: cd  OPCODE: 7 EXPECTED RESULT: 2b8, ACTUAL RESULT : 2b8
# SCB:: Pkt recived
# PASSED: A: 13  B: e7  OPCODE: 5 EXPECTED RESULT: 1e1, ACTUAL RESULT : 1e1
# SCB:: Pkt recived
# PASSED: A: 22  B: f4  OPCODE: 3 EXPECTED RESULT: d6, ACTUAL RESULT : d6
# SCB:: Pkt recived
# PASSED: A: 31  B: dc  OPCODE: 6 EXPECTED RESULT: 62, ACTUAL RESULT : 62
# SCB:: Pkt recived
# A:81,B:9,result:214
# PASSED: A: 51  B: 9  OPCODE: 1 EXPECTED RESULT: 5a, ACTUAL RESULT : 5a
# SCB:: Pkt recived
# PASSED: A: ae  B: b3  OPCODE: 4 EXPECTED RESULT: 79aa, ACTUAL RESULT : 79aa
# SCB:: Pkt recived
# PASSED: A: d3  B: 75  OPCODE: 2 EXPECTED RESULT: 51, ACTUAL RESULT : 51
# SCB:: Pkt recived
# PASSED: A: b4  B: dc  OPCODE: 7 EXPECTED RESULT: 21c, ACTUAL RESULT : 21c
# SCB:: Pkt recived
# PASSED: A: 80  B: 93  OPCODE: 2 EXPECTED RESULT: 80, ACTUAL RESULT : 80
# SCB:: Pkt recived
# PASSED: A: 3a  B: ce  OPCODE: 4 EXPECTED RESULT: 2eac, ACTUAL RESULT : 2eac
# SCB:: Pkt recived
# A:131,B:208,result:128
# PASSED: A: 83  B: d0  OPCODE: 1 EXPECTED RESULT: 153, ACTUAL RESULT : 153
# SCB:: Pkt recived
# PASSED: A: 9d  B: aa  OPCODE: 6 EXPECTED RESULT: 13a, ACTUAL RESULT : 13a
# SCB:: Pkt recived
# PASSED: A: 82  B: de  OPCODE: 3 EXPECTED RESULT: 5c, ACTUAL RESULT : 5c
# SCB:: Pkt recived
# PASSED: A: f8  B: b1  OPCODE: 5 EXPECTED RESULT: 25a, ACTUAL RESULT : 25a
# SCB:: Pkt recived
# A:87,B:2,result:92
# PASSED: A: 57  B: 2  OPCODE: 1 EXPECTED RESULT: 59, ACTUAL RESULT : 59
# SCB:: Pkt recived
# PASSED: A: ee  B: 6f  OPCODE: 4 EXPECTED RESULT: 6732, ACTUAL RESULT : 6732
# SCB:: Pkt recived
# PASSED: A: a9  B: 86  OPCODE: 5 EXPECTED RESULT: 1b5, ACTUAL RESULT : 1b5
# SCB:: Pkt recived
# PASSED: A: fc  B: f8  OPCODE: 2 EXPECTED RESULT: f8, ACTUAL RESULT : f8
# SCB:: Pkt recived
# PASSED: A: b0  B: 4a  OPCODE: 3 EXPECTED RESULT: fa, ACTUAL RESULT : fa
# SCB:: Pkt recived
# PASSED: A: 5c  B: 8  OPCODE: 6 EXPECTED RESULT: b8, ACTUAL RESULT : b8
# SCB:: Pkt recived
# PASSED: A: c0  B: ff  OPCODE: 7 EXPECTED RESULT: 240, ACTUAL RESULT : 240
# SCB:: Pkt recived
# PASSED: A: 9d  B: 1d  OPCODE: 5 EXPECTED RESULT: d7, ACTUAL RESULT : d7
# SCB:: Pkt recived
# PASSED: A: c8  B: 6e  OPCODE: 2 EXPECTED RESULT: 48, ACTUAL RESULT : 48
# SCB:: Pkt recived
# PASSED: A: 79  B: be  OPCODE: 6 EXPECTED RESULT: f2, ACTUAL RESULT : f2
# SCB:: Pkt recived
# PASSED: A: 49  B: 56  OPCODE: 4 EXPECTED RESULT: 1886, ACTUAL RESULT : 1886
# SCB:: Pkt recived
# PASSED: A: d2  B: 39  OPCODE: 3 EXPECTED RESULT: eb, ACTUAL RESULT : eb
# SCB:: Pkt recived
# PASSED: A: e7  B: 3e  OPCODE: 7 EXPECTED RESULT: 2b5, ACTUAL RESULT : 2b5
# SCB:: Pkt recived
# A:74,B:171,result:235
# PASSED: A: 4a  B: ab  OPCODE: 1 EXPECTED RESULT: f5, ACTUAL RESULT : f5
# SCB:: Pkt recived
# PASSED: A: 64  B: 5b  OPCODE: 5 EXPECTED RESULT: 11a, ACTUAL RESULT : 11a
# SCB:: Pkt recived
# PASSED: A: 11  B: b  OPCODE: 4 EXPECTED RESULT: bb, ACTUAL RESULT : bb
# SCB:: Pkt recived
# PASSED: A: 4b  B: c0  OPCODE: 3 EXPECTED RESULT: 8b, ACTUAL RESULT : 8b
# SCB:: Pkt recived
# PASSED: A: b2  B: e  OPCODE: 2 EXPECTED RESULT: 2, ACTUAL RESULT : 2
# SCB:: Pkt recived
# PASSED: A: 1  B: a1  OPCODE: 7 EXPECTED RESULT: 3, ACTUAL RESULT : 3
# SCB:: Pkt recived
# PASSED: A: 64  B: a0  OPCODE: 6 EXPECTED RESULT: c8, ACTUAL RESULT : c8
# SCB:: Pkt recived
# A:80,B:39,result:2
# PASSED: A: 50  B: 27  OPCODE: 1 EXPECTED RESULT: 77, ACTUAL RESULT : 77
# SCB:: Pkt recived
# PASSED: A: 25  B: a  OPCODE: 2 EXPECTED RESULT: 0, ACTUAL RESULT : 0
# SCB:: Pkt recived
# PASSED: A: 6  B: 42  OPCODE: 3 EXPECTED RESULT: 44, ACTUAL RESULT : 44
# SCB:: Pkt recived
# PASSED: A: fd  B: 39  OPCODE: 4 EXPECTED RESULT: 3855, ACTUAL RESULT : 3855
# SCB:: Pkt recived
# PASSED: A: b9  B: f8  OPCODE: 5 EXPECTED RESULT: 2a9, ACTUAL RESULT : 2a9
# SCB:: Pkt recived
# A:236,B:7,result:68
# PASSED: A: ec  B: 7  OPCODE: 1 EXPECTED RESULT: f3, ACTUAL RESULT : f3
# SCB:: Pkt recived
# PASSED: A: 74  B: 66  OPCODE: 6 EXPECTED RESULT: e8, ACTUAL RESULT : e8
# SCB:: Pkt recived
# PASSED: A: 49  B: 31  OPCODE: 7 EXPECTED RESULT: db, ACTUAL RESULT : db
# SCB:: Pkt recived
# PASSED: A: 8f  B: 12  OPCODE: 7 EXPECTED RESULT: 1ad, ACTUAL RESULT : 1ad
# SCB:: Pkt recived
# PASSED: A: 22  B: 9a  OPCODE: 4 EXPECTED RESULT: 1474, ACTUAL RESULT : 1474
# SCB:: Pkt recived
# PASSED: A: e4  B: 37  OPCODE: 6 EXPECTED RESULT: 1c8, ACTUAL RESULT : 1c8
# SCB:: Pkt recived
# A:87,B:44,result:243
# PASSED: A: 57  B: 2c  OPCODE: 1 EXPECTED RESULT: 83, ACTUAL RESULT : 83
# SCB:: Pkt recived
# PASSED: A: 8  B: 72  OPCODE: 3 EXPECTED RESULT: 7a, ACTUAL RESULT : 7a
# SCB:: Pkt recived
# PASSED: A: b1  B: b7  OPCODE: 2 EXPECTED RESULT: b1, ACTUAL RESULT : b1
# SCB:: Pkt recived
# PASSED: A: da  B: 5a  OPCODE: 5 EXPECTED RESULT: 18e, ACTUAL RESULT : 18e
# SCB:: Pkt recived
# PASSED: A: 9  B: 6e  OPCODE: 5 EXPECTED RESULT: e5, ACTUAL RESULT : e5
# SCB:: Pkt recived
# PASSED: A: cd  B: 27  OPCODE: 4 EXPECTED RESULT: 1f3b, ACTUAL RESULT : 1f3b
# SCB:: Pkt recived
# PASSED: A: 5b  B: 94  OPCODE: 3 EXPECTED RESULT: cf, ACTUAL RESULT : cf
# SCB:: Pkt recived
# PASSED: A: a7  B: 14  OPCODE: 2 EXPECTED RESULT: 4, ACTUAL RESULT : 4
# SCB:: Pkt recived
# PASSED: A: 8d  B: de  OPCODE: 7 EXPECTED RESULT: 1a7, ACTUAL RESULT : 1a7
# SCB:: Pkt recived
# PASSED: A: 29  B: f3  OPCODE: 6 EXPECTED RESULT: 52, ACTUAL RESULT : 52
# SCB:: Pkt recived
# A:94,B:244,result:4
# PASSED: A: 5e  B: f4  OPCODE: 1 EXPECTED RESULT: 152, ACTUAL RESULT : 152
# SCB:: Pkt recived
# PASSED: A: 75  B: b3  OPCODE: 5 EXPECTED RESULT: 1db, ACTUAL RESULT : 1db
# SCB:: Pkt recived
# PASSED: A: cc  B: 2f  OPCODE: 3 EXPECTED RESULT: e3, ACTUAL RESULT : e3
# SCB:: Pkt recived
# PASSED: A: 5c  B: a6  OPCODE: 6 EXPECTED RESULT: b8, ACTUAL RESULT : b8
# SCB:: Pkt recived
# A:104,B:254,result:227
# PASSED: A: 68  B: fe  OPCODE: 1 EXPECTED RESULT: 166, ACTUAL RESULT : 166
# SCB:: Pkt recived
# PASSED: A: 76  B: 48  OPCODE: 4 EXPECTED RESULT: 2130, ACTUAL RESULT : 2130
# SCB:: Pkt recived
# PASSED: A: a6  B: bd  OPCODE: 2 EXPECTED RESULT: a4, ACTUAL RESULT : a4
# SCB:: Pkt recived
# PASSED: A: 2e  B: 81  OPCODE: 7 EXPECTED RESULT: 8a, ACTUAL RESULT : 8a
# SCB:: Pkt recived
# PASSED: A: ca  B: 83  OPCODE: 3 EXPECTED RESULT: 49, ACTUAL RESULT : 49
# SCB:: Pkt recived
# A:126,B:161,result:73
# PASSED: A: 7e  B: a1  OPCODE: 1 EXPECTED RESULT: 11f, ACTUAL RESULT : 11f
# SCB:: Pkt recived
# PASSED: A: 4a  B: d3  OPCODE: 6 EXPECTED RESULT: 94, ACTUAL RESULT : 94
# SCB:: Pkt recived
# PASSED: A: 11  B: 6c  OPCODE: 4 EXPECTED RESULT: 72c, ACTUAL RESULT : 72c
# SCB:: Pkt recived
# UVM_INFO verilog_src/uvm-1.1d/src/base/uvm_objection.svh(1267) @ 10000: reporter [TEST_DONE] 'run' phase is ready to proceed to the 'extract' phase
# 
# --- UVM Report Summary ---
# 
# ** Report counts by severity
# UVM_INFO :    5
# UVM_WARNING :    0
# UVM_ERROR :    0
# UVM_FATAL :    0
# ** Report counts by id
# [Questa UVM]     2
# [RNTST]     1
# [TEST_DONE]     1
# [UVMTOP]     1
# ** Note: $finish    : /pkgs/mentor/questa/2019.2_1/questasim/linux_x86_64/../verilog_src/uvm-1.1d/src/base/uvm_root.svh(430)
#    Time: 10 us  Iteration: 54  Instance: /top
# 1
# Break in Task uvm_pkg/uvm_root::run_test at /pkgs/mentor/questa/2019.2_1/questasim/linux_x86_64/../verilog_src/uvm-1.1d/src/base/uvm_root.svh line 430
